.i 45
.o 45
0000000000000000000000000000000000000000000 000000000000000000000000000000000000000000000
1011111111111111111111111111111111111111111 000000000000110001000010010010000000010000000
1111111111111111111100000000000000000000000 000000000000010111100010000000000000010000000
0000000011111111111111100000000000111111111 000000000000010111100010000000000000010000000
0000000000000111111111111111111000000000000 000000000000110001000010010010000000010000000
1111011101010001001100011111000001111100000 000000000000000000000000000000000000000000000
0010101010101010100011001001100110010001111 000000000000000000000000000000000000000000000
.e
#result of model apex1 logic simulation
