.i 25
.o 8
0000000000000000000000000 00000000
1000000000000111111111111 00001011
1111111111111111111111111 01111111
0000111111111111110000000 00000011
1010101000000011111110101 00001111
1111111111110000000000111 00001110
0111111111000000010100000 00000000
1011111111111011111111111 00001111
.e
#result of model vg2 logic simulation
