.i 8
.o 7
10110001 0000000
11101101 0000000
10101010 1001111
10111010 0000000
01110111 1010111
00110011 0100110
00000000 0010100
11110001 0000000
01011101 0110111
.e
#result of model misex1 logic simulation
