digraph  LOGIC_GATE  {
	rankdir = LR;

	{rank=same dmpst3 dmpst2 dmpst1 dmpst0 xskip yskip page rmwB}
	{rank=same new_n16_ new_n17_ new_n18_ new_n21_ new_n29_ new_n40_ new_n41_ new_n48_};
	{rank=same new_n19_ new_n22_ new_n25_ new_n27_ new_n30_ new_n32_ new_n36_ new_n39_ new_n46_ new_n49_ new_n58_ new_n65_};
	{rank=same new_n20_ new_n23_ new_n26_ new_n28_ new_n31_ new_n33_ new_n37_ new_n42_ new_n47_ new_n50_ new_n53_ new_n54_ new_n66_};
	{rank=same dmnst3B new_n34_ new_n38_ new_n51_ new_n55_ new_n57_ new_n61_ new_n67_};
	{rank=same dmnst2B dmnst0B adctlp2B new_n43_ new_n59_ new_n63_};
	{rank=same new_n44_ new_n60_ new_n64_};
	{rank=same dmnst1B adctlp1B adctlp0B};

	dmpst3 [label="dmpst3"];
	dmpst2 [label="dmpst2"];
	dmpst1 [label="dmpst1"];
	dmpst0 [label="dmpst0"];
	xskip [label="xskip"];
	yskip [label="yskip"];
	page [label="page"];
	rmwB [label="rmwB"];
	dmnst3B [label="dmnst3B"];
	dmnst2B [label="dmnst2B"];
	dmnst1B [label="dmnst1B"];
	dmnst0B [label="dmnst0B"];
	adctlp2B [label="adctlp2B"];
	adctlp1B [label="adctlp1B"];
	adctlp0B [label="adctlp0B"];
	new_n16_ [label="new_n16_"];
	new_n17_ [label="new_n17_"];
	new_n18_ [label="new_n18_"];
	new_n19_ [label="new_n19_"];
	new_n20_ [label="new_n20_"];
	new_n21_ [label="new_n21_"];
	new_n22_ [label="new_n22_"];
	new_n23_ [label="new_n23_"];
	new_n25_ [label="new_n25_"];
	new_n26_ [label="new_n26_"];
	new_n27_ [label="new_n27_"];
	new_n28_ [label="new_n28_"];
	new_n29_ [label="new_n29_"];
	new_n30_ [label="new_n30_"];
	new_n31_ [label="new_n31_"];
	new_n32_ [label="new_n32_"];
	new_n33_ [label="new_n33_"];
	new_n34_ [label="new_n34_"];
	new_n36_ [label="new_n36_"];
	new_n37_ [label="new_n37_"];
	new_n38_ [label="new_n38_"];
	new_n39_ [label="new_n39_"];
	new_n40_ [label="new_n40_"];
	new_n41_ [label="new_n41_"];
	new_n42_ [label="new_n42_"];
	new_n43_ [label="new_n43_"];
	new_n44_ [label="new_n44_"];
	new_n46_ [label="new_n46_"];
	new_n47_ [label="new_n47_"];
	new_n48_ [label="new_n48_"];
	new_n49_ [label="new_n49_"];
	new_n50_ [label="new_n50_"];
	new_n51_ [label="new_n51_"];
	new_n53_ [label="new_n53_"];
	new_n54_ [label="new_n54_"];
	new_n55_ [label="new_n55_"];
	new_n57_ [label="new_n57_"];
	new_n58_ [label="new_n58_"];
	new_n59_ [label="new_n59_"];
	new_n60_ [label="new_n60_"];
	new_n61_ [label="new_n61_"];
	new_n63_ [label="new_n63_"];
	new_n64_ [label="new_n64_"];
	new_n65_ [label="new_n65_"];
	new_n66_ [label="new_n66_"];
	new_n67_ [label="new_n67_"];
	dmnst3B[label="dmnst3B", shape=box];
	dmnst2B[label="dmnst2B", shape=box];
	dmnst1B[label="dmnst1B", shape=box];
	dmnst0B[label="dmnst0B", shape=box];
	adctlp2B[label="adctlp2B", shape=box];
	adctlp1B[label="adctlp1B", shape=box];
	adctlp0B[label="adctlp0B", shape=box];

	dmpst3 -> new_n19_[style = solid];
	dmpst3 -> new_n21_[style = solid];
	dmpst3 -> new_n33_[style = solid];
	dmpst3 -> new_n53_[style = solid];
	dmpst3 -> new_n57_[style = solid];
	dmpst2 -> new_n18_[style = solid];
	dmpst2 -> new_n22_[style = solid];
	dmpst2 -> new_n38_[style = solid];
	dmpst2 -> new_n40_[style = solid];
	dmpst1 -> new_n16_[style = solid];
	dmpst1 -> new_n25_[style = solid];
	dmpst1 -> new_n41_[style = solid];
	dmpst1 -> new_n47_[style = solid];
	dmpst1 -> new_n58_[style = solid];
	dmpst0 -> new_n17_[style = solid];
	dmpst0 -> new_n23_[style = solid];
	dmpst0 -> new_n30_[style = solid];
	dmpst0 -> new_n40_[style = solid];
	xskip -> new_n36_[style = solid];
	xskip -> new_n48_[style = solid];
	yskip -> new_n29_[style = solid];
	yskip -> new_n41_[style = solid];
	yskip -> new_n46_[style = solid];
	yskip -> new_n58_[style = solid];
	page -> new_n27_[style = solid];
	page -> new_n39_[style = solid];
	rmwB -> new_n50_[style = solid];
	new_n16_ -> dmnst3B[style = solid];
	new_n16_ -> new_n28_[style = solid];
	new_n16_ -> new_n30_[style = solid];
	new_n16_ -> new_n32_[style = solid];
	new_n16_ -> new_n36_[style = solid];
	new_n16_ -> new_n39_[style = solid];
	new_n16_ -> new_n51_[style = solid];
	new_n16_ -> new_n65_[style = solid];
	new_n17_ -> new_n20_[style = solid];
	new_n17_ -> new_n25_[style = solid];
	new_n17_ -> new_n27_[style = solid];
	new_n17_ -> new_n37_[style = solid];
	new_n17_ -> new_n49_[style = solid];
	new_n17_ -> new_n66_[style = solid];
	new_n18_ -> new_n19_[style = solid];
	new_n18_ -> new_n28_[style = solid];
	new_n18_ -> new_n32_[style = solid];
	new_n18_ -> new_n55_[style = solid];
	new_n18_ -> new_n60_[style = solid];
	new_n18_ -> new_n64_[style = solid];
	new_n19_ -> new_n20_[style = solid];
	new_n19_ -> new_n51_[style = solid];
	new_n19_ -> new_n67_[style = solid];
	new_n20_ -> dmnst3B[style = solid];
	new_n21_ -> new_n22_[style = solid];
	new_n21_ -> new_n44_[style = solid];
	new_n21_ -> new_n46_[style = solid];
	new_n21_ -> new_n58_[style = solid];
	new_n22_ -> new_n23_[style = solid];
	new_n22_ -> new_n26_[style = solid];
	new_n23_ -> dmnst3B[style = solid];
	new_n25_ -> new_n26_[style = solid];
	new_n25_ -> new_n54_[style = solid];
	new_n26_ -> dmnst2B[style = solid];
	new_n26_ -> dmnst1B[style = solid];
	new_n27_ -> new_n28_[style = solid];
	new_n28_ -> new_n34_[style = solid];
	new_n28_ -> new_n61_[style = solid];
	new_n29_ -> new_n31_[style = solid];
	new_n30_ -> new_n31_[style = solid];
	new_n30_ -> new_n53_[style = solid];
	new_n30_ -> new_n54_[style = solid];
	new_n31_ -> new_n34_[style = solid];
	new_n31_ -> new_n63_[style = solid];
	new_n32_ -> new_n33_[style = solid];
	new_n33_ -> new_n34_[style = solid];
	new_n34_ -> dmnst2B[style = solid];
	new_n36_ -> new_n37_[style = solid];
	new_n37_ -> new_n38_[style = solid];
	new_n38_ -> new_n43_[style = solid];
	new_n39_ -> new_n42_[style = solid];
	new_n40_ -> new_n42_[style = solid];
	new_n40_ -> new_n47_[style = solid];
	new_n41_ -> new_n42_[style = solid];
	new_n42_ -> new_n43_[style = solid];
	new_n43_ -> new_n44_[style = solid];
	new_n44_ -> dmnst1B[style = solid];
	new_n46_ -> new_n47_[style = solid];
	new_n47_ -> dmnst0B[style = solid];
	new_n48_ -> new_n49_[style = solid];
	new_n48_ -> new_n65_[style = solid];
	new_n49_ -> new_n50_[style = solid];
	new_n50_ -> new_n51_[style = solid];
	new_n51_ -> dmnst0B[style = solid];
	new_n53_ -> adctlp2B[style = solid];
	new_n53_ -> new_n61_[style = solid];
	new_n54_ -> new_n55_[style = solid];
	new_n54_ -> new_n57_[style = solid];
	new_n55_ -> adctlp2B[style = solid];
	new_n57_ -> new_n59_[style = solid];
	new_n57_ -> new_n63_[style = solid];
	new_n58_ -> new_n59_[style = solid];
	new_n59_ -> new_n60_[style = solid];
	new_n60_ -> adctlp1B[style = solid];
	new_n61_ -> adctlp1B[style = solid];
	new_n63_ -> new_n64_[style = solid];
	new_n64_ -> adctlp0B[style = solid];
	new_n65_ -> new_n66_[style = solid];
	new_n66_ -> new_n67_[style = solid];
	new_n67_ -> adctlp0B[style = solid];
}