.i 14
.o 14
00000000000000 10001000000100
11111111111111 00000100001100
11111110000000 00000100001100
00000001111111 10001000000100
00011110000111 00101100001111
11100001111000 00000000000000
00000000000111 10001000000100
11100000000000 00000000000000
.e
#result of model table3 logic simulation
