digraph  LOGIC_GATE  {
	rankdir = LR;

	{rank=same x0 x1 x2 x3 x4 x5 x6}
	{rank=same z8 new_n18_ new_n19_ new_n20_ new_n21_ new_n28_ new_n34_ new_n35_ new_n36_ new_n38_ new_n43_ new_n44_ new_n45_ new_n57_ new_n59_ new_n63_ new_n64_ new_n70_};
	{rank=same new_n23_ new_n37_ new_n39_ new_n46_ new_n55_ new_n58_ new_n60_ new_n65_ new_n71_ new_n72_ new_n100_ new_n101_ new_n104_};
	{rank=same z7 new_n24_ new_n29_ new_n40_ new_n47_ new_n61_ new_n66_ new_n73_ new_n79_ new_n83_ new_n84_ new_n95_ new_n102_ new_n105_};
	{rank=same z5 z6 new_n25_ new_n30_ new_n41_ new_n48_ new_n54_ new_n62_ new_n67_ new_n74_ new_n85_ new_n90_ new_n92_ new_n96_};
	{rank=same new_n26_ new_n31_ new_n42_ new_n49_ new_n56_ new_n75_ new_n78_ new_n86_ new_n93_ new_n97_};
	{rank=same z9 new_n32_ new_n50_ new_n68_ new_n76_ new_n80_ new_n87_ new_n89_ new_n94_ new_n98_};
	{rank=same z0 z4 new_n51_ new_n69_ new_n77_ new_n88_};
	{rank=same z3 new_n52_ new_n81_};
	{rank=same z1 z2};

	x0 [label="x0"];
	x1 [label="x1"];
	x2 [label="x2"];
	x3 [label="x3"];
	x4 [label="x4"];
	x5 [label="x5"];
	x6 [label="x6"];
	z0 [label="z0"];
	z1 [label="z1"];
	z2 [label="z2"];
	z3 [label="z3"];
	z4 [label="z4"];
	z5 [label="z5"];
	z6 [label="z6"];
	z7 [label="z7"];
	z8 [label="z8"];
	z9 [label="z9"];
	new_n18_ [label="new_n18_"];
	new_n19_ [label="new_n19_"];
	new_n20_ [label="new_n20_"];
	new_n21_ [label="new_n21_"];
	new_n23_ [label="new_n23_"];
	new_n24_ [label="new_n24_"];
	new_n25_ [label="new_n25_"];
	new_n26_ [label="new_n26_"];
	new_n28_ [label="new_n28_"];
	new_n29_ [label="new_n29_"];
	new_n30_ [label="new_n30_"];
	new_n31_ [label="new_n31_"];
	new_n32_ [label="new_n32_"];
	new_n34_ [label="new_n34_"];
	new_n35_ [label="new_n35_"];
	new_n36_ [label="new_n36_"];
	new_n37_ [label="new_n37_"];
	new_n38_ [label="new_n38_"];
	new_n39_ [label="new_n39_"];
	new_n40_ [label="new_n40_"];
	new_n41_ [label="new_n41_"];
	new_n42_ [label="new_n42_"];
	new_n43_ [label="new_n43_"];
	new_n44_ [label="new_n44_"];
	new_n45_ [label="new_n45_"];
	new_n46_ [label="new_n46_"];
	new_n47_ [label="new_n47_"];
	new_n48_ [label="new_n48_"];
	new_n49_ [label="new_n49_"];
	new_n50_ [label="new_n50_"];
	new_n51_ [label="new_n51_"];
	new_n52_ [label="new_n52_"];
	new_n54_ [label="new_n54_"];
	new_n55_ [label="new_n55_"];
	new_n56_ [label="new_n56_"];
	new_n57_ [label="new_n57_"];
	new_n58_ [label="new_n58_"];
	new_n59_ [label="new_n59_"];
	new_n60_ [label="new_n60_"];
	new_n61_ [label="new_n61_"];
	new_n62_ [label="new_n62_"];
	new_n63_ [label="new_n63_"];
	new_n64_ [label="new_n64_"];
	new_n65_ [label="new_n65_"];
	new_n66_ [label="new_n66_"];
	new_n67_ [label="new_n67_"];
	new_n68_ [label="new_n68_"];
	new_n69_ [label="new_n69_"];
	new_n70_ [label="new_n70_"];
	new_n71_ [label="new_n71_"];
	new_n72_ [label="new_n72_"];
	new_n73_ [label="new_n73_"];
	new_n74_ [label="new_n74_"];
	new_n75_ [label="new_n75_"];
	new_n76_ [label="new_n76_"];
	new_n77_ [label="new_n77_"];
	new_n78_ [label="new_n78_"];
	new_n79_ [label="new_n79_"];
	new_n80_ [label="new_n80_"];
	new_n81_ [label="new_n81_"];
	new_n83_ [label="new_n83_"];
	new_n84_ [label="new_n84_"];
	new_n85_ [label="new_n85_"];
	new_n86_ [label="new_n86_"];
	new_n87_ [label="new_n87_"];
	new_n88_ [label="new_n88_"];
	new_n89_ [label="new_n89_"];
	new_n90_ [label="new_n90_"];
	new_n92_ [label="new_n92_"];
	new_n93_ [label="new_n93_"];
	new_n94_ [label="new_n94_"];
	new_n95_ [label="new_n95_"];
	new_n96_ [label="new_n96_"];
	new_n97_ [label="new_n97_"];
	new_n98_ [label="new_n98_"];
	new_n100_ [label="new_n100_"];
	new_n101_ [label="new_n101_"];
	new_n102_ [label="new_n102_"];
	new_n104_ [label="new_n104_"];
	new_n105_ [label="new_n105_"];
	z0[label="z0", shape=box];
	z1[label="z1", shape=box];
	z2[label="z2", shape=box];
	z3[label="z3", shape=box];
	z4[label="z4", shape=box];
	z5[label="z5", shape=box];
	z6[label="z6", shape=box];
	z7[label="z7", shape=box];
	z8[label="z8", shape=box];
	z9[label="z9", shape=box];

	x0 -> new_n20_[style = solid];
	x0 -> new_n29_[style = solid];
	x0 -> new_n40_[style = solid];
	x0 -> new_n50_[style = solid];
	x0 -> new_n59_[style = solid];
	x0 -> new_n65_[style = solid];
	x0 -> new_n70_[style = solid];
	x1 -> new_n24_[style = solid];
	x1 -> new_n28_[style = solid];
	x1 -> new_n36_[style = solid];
	x1 -> new_n38_[style = solid];
	x1 -> new_n48_[style = solid];
	x1 -> new_n67_[style = solid];
	x1 -> new_n79_[style = solid];
	x1 -> new_n86_[style = solid];
	x1 -> new_n94_[style = solid];
	x1 -> new_n105_[style = solid];
	x2 -> new_n21_[style = solid];
	x2 -> new_n44_[style = solid];
	x2 -> new_n45_[style = solid];
	x2 -> new_n57_[style = solid];
	x2 -> new_n73_[style = solid];
	x2 -> new_n84_[style = solid];
	x2 -> new_n101_[style = solid];
	x2 -> new_n104_[style = solid];
	x3 -> z8[style = solid];
	x3 -> new_n45_[style = solid];
	x3 -> new_n64_[style = solid];
	x3 -> new_n100_[style = solid];
	x4 -> new_n18_[style = solid];
	x4 -> new_n34_[style = solid];
	x4 -> new_n36_[style = solid];
	x4 -> new_n43_[style = solid];
	x5 -> new_n19_[style = solid];
	x5 -> new_n31_[style = solid];
	x5 -> new_n42_[style = solid];
	x5 -> new_n57_[style = solid];
	x5 -> new_n59_[style = solid];
	x5 -> new_n63_[style = solid];
	x5 -> new_n64_[style = solid];
	x5 -> new_n70_[style = solid];
	x5 -> new_n78_[style = solid];
	x6 -> new_n26_[style = solid];
	x6 -> new_n31_[style = solid];
	x6 -> new_n34_[style = solid];
	x6 -> new_n35_[style = solid];
	x6 -> new_n38_[style = solid];
	x6 -> new_n43_[style = solid];
	x6 -> new_n44_[style = solid];
	x6 -> new_n56_[style = solid];
	x6 -> new_n63_[style = solid];
	x6 -> new_n77_[style = solid];
	x6 -> new_n84_[style = solid];
	x6 -> new_n96_[style = solid];
	z8 -> new_n23_[style = solid];
	z8 -> new_n39_[style = solid];
	z8 -> new_n72_[style = solid];
	z8 -> new_n101_[style = solid];
	z8 -> new_n104_[style = solid];
	z9 -> z0[style = solid];
	new_n18_ -> z9[style = solid];
	new_n18_ -> new_n32_[style = solid];
	new_n18_ -> new_n46_[style = solid];
	new_n18_ -> new_n69_[style = solid];
	new_n18_ -> new_n81_[style = solid];
	new_n19_ -> z9[style = solid];
	new_n19_ -> new_n52_[style = solid];
	new_n19_ -> new_n54_[style = solid];
	new_n20_ -> new_n25_[style = solid];
	new_n20_ -> new_n55_[style = solid];
	new_n20_ -> new_n58_[style = solid];
	new_n20_ -> new_n72_[style = solid];
	new_n20_ -> z5[style = solid];
	new_n21_ -> new_n23_[style = solid];
	new_n21_ -> new_n39_[style = solid];
	new_n21_ -> new_n65_[style = solid];
	new_n21_ -> new_n100_[style = solid];
	new_n23_ -> new_n24_[style = solid];
	new_n23_ -> new_n29_[style = solid];
	new_n23_ -> new_n95_[style = solid];
	new_n23_ -> z7[style = solid];
	new_n24_ -> new_n25_[style = solid];
	new_n25_ -> new_n26_[style = solid];
	new_n25_ -> new_n78_[style = solid];
	new_n26_ -> z9[style = solid];
	new_n28_ -> new_n30_[style = solid];
	new_n28_ -> new_n60_[style = solid];
	new_n28_ -> new_n74_[style = solid];
	new_n28_ -> new_n90_[style = solid];
	new_n28_ -> new_n98_[style = solid];
	new_n28_ -> new_n101_[style = solid];
	new_n29_ -> new_n30_[style = solid];
	new_n29_ -> new_n54_[style = solid];
	new_n29_ -> new_n96_[style = solid];
	new_n30_ -> new_n31_[style = solid];
	new_n31_ -> new_n32_[style = solid];
	new_n32_ -> z0[style = solid];
	new_n34_ -> new_n41_[style = solid];
	new_n35_ -> new_n37_[style = solid];
	new_n35_ -> new_n47_[style = solid];
	new_n35_ -> new_n62_[style = solid];
	new_n35_ -> new_n80_[style = solid];
	new_n35_ -> new_n85_[style = solid];
	new_n35_ -> new_n92_[style = solid];
	new_n35_ -> new_n95_[style = solid];
	new_n36_ -> new_n37_[style = solid];
	new_n37_ -> new_n40_[style = solid];
	new_n38_ -> new_n39_[style = solid];
	new_n39_ -> new_n40_[style = solid];
	new_n40_ -> new_n41_[style = solid];
	new_n41_ -> new_n42_[style = solid];
	new_n42_ -> z1[style = solid];
	new_n43_ -> new_n51_[style = solid];
	new_n44_ -> new_n49_[style = solid];
	new_n45_ -> new_n46_[style = solid];
	new_n45_ -> new_n55_[style = solid];
	new_n45_ -> new_n96_[style = solid];
	new_n45_ -> z7[style = solid];
	new_n46_ -> new_n47_[style = solid];
	new_n47_ -> new_n48_[style = solid];
	new_n48_ -> new_n49_[style = solid];
	new_n49_ -> new_n50_[style = solid];
	new_n50_ -> new_n51_[style = solid];
	new_n51_ -> new_n52_[style = solid];
	new_n52_ -> z1[style = solid];
	new_n54_ -> new_n56_[style = solid];
	new_n55_ -> new_n56_[style = solid];
	new_n55_ -> new_n79_[style = solid];
	new_n55_ -> new_n95_[style = solid];
	new_n56_ -> new_n68_[style = solid];
	new_n56_ -> new_n89_[style = solid];
	new_n57_ -> new_n58_[style = solid];
	new_n58_ -> new_n61_[style = solid];
	new_n59_ -> new_n60_[style = solid];
	new_n59_ -> new_n71_[style = solid];
	new_n60_ -> new_n61_[style = solid];
	new_n61_ -> new_n62_[style = solid];
	new_n62_ -> new_n68_[style = solid];
	new_n63_ -> new_n66_[style = solid];
	new_n64_ -> new_n65_[style = solid];
	new_n64_ -> new_n85_[style = solid];
	new_n65_ -> new_n66_[style = solid];
	new_n66_ -> new_n67_[style = solid];
	new_n67_ -> new_n68_[style = solid];
	new_n68_ -> new_n69_[style = solid];
	new_n69_ -> z2[style = solid];
	new_n70_ -> new_n76_[style = solid];
	new_n70_ -> new_n83_[style = solid];
	new_n71_ -> new_n75_[style = solid];
	new_n71_ -> new_n83_[style = solid];
	new_n71_ -> new_n89_[style = solid];
	new_n72_ -> new_n73_[style = solid];
	new_n72_ -> new_n84_[style = solid];
	new_n73_ -> new_n74_[style = solid];
	new_n73_ -> new_n85_[style = solid];
	new_n73_ -> new_n92_[style = solid];
	new_n74_ -> new_n75_[style = solid];
	new_n75_ -> new_n76_[style = solid];
	new_n76_ -> new_n77_[style = solid];
	new_n77_ -> new_n81_[style = solid];
	new_n78_ -> new_n80_[style = solid];
	new_n79_ -> new_n80_[style = solid];
	new_n80_ -> new_n81_[style = solid];
	new_n81_ -> z2[style = solid];
	new_n83_ -> new_n88_[style = solid];
	new_n83_ -> new_n90_[style = solid];
	new_n84_ -> new_n87_[style = solid];
	new_n84_ -> new_n90_[style = solid];
	new_n84_ -> new_n93_[style = solid];
	new_n85_ -> new_n86_[style = solid];
	new_n86_ -> new_n87_[style = solid];
	new_n87_ -> new_n88_[style = solid];
	new_n88_ -> z3[style = solid];
	new_n89_ -> z3[style = solid];
	new_n90_ -> z3[style = solid];
	new_n92_ -> new_n93_[style = solid];
	new_n93_ -> new_n94_[style = solid];
	new_n94_ -> z4[style = solid];
	new_n95_ -> new_n97_[style = solid];
	new_n96_ -> new_n97_[style = solid];
	new_n97_ -> new_n98_[style = solid];
	new_n98_ -> z4[style = solid];
	new_n100_ -> new_n102_[style = solid];
	new_n101_ -> new_n102_[style = solid];
	new_n101_ -> z6[style = solid];
	new_n102_ -> z5[style = solid];
	new_n104_ -> new_n105_[style = solid];
	new_n105_ -> z6[style = solid];
}